Obtain local PIT-values from a model — PIT_local • recalibratiNN
…
x_train <- x[1:(n*split)]
y_train <- y[1:(n*split)]

x_cal <- x[(n*split+1):n]
y_cal <- y[(n*split+1):n]

model <- lm(y_train ~ x_train)

y_hat <- predict(model, newdata=data.frame(x_train=x_cal))

MSE_cal <- mean((y_hat - y_cal)^2)

PIT_local(xcal = x_cal, ycal=y_cal, yhat=y_hat, mse=MSE_cal)
#> # A tibble: 2,400 × 5
#>    part   y_cal y_hat   pit     n
#>    <glue> <dbl> <dbl> <dbl> <dbl>
#>  1 part_1  63.2 -11.4 0.660   400
#>  2 part_1 -80.6 -11.4 0.351   400
#>  3 part_1  68.8 -11.6 0.672   400
#>  4 part_1  10.6 -11.7 0.549   400
#>  5 part_1  34.2 -11.7 0.600   400
#>  6 part_1  21.7 -11.1 0.572   400
#>  7 part_1  70.0 -11.8 0.674   400
#>  8 part_1 -14.4 -11.8 0.494   400
#>  9 part_1  28.9 -11.0 0.587   400
#> 10 part_1  13.4 -12.2 0.556   400
#> # ℹ 2,390 more rows
…
